%YAML 1.1
%TAG !u! tag:unity3d.com,2011:
--- !u!114 &11400000
MonoBehaviour:
  m_ObjectHideFlags: 0
  m_CorrespondingSourceObject: {fileID: 0}
  m_PrefabInternal: {fileID: 0}
  m_GameObject: {fileID: 0}
  m_Enabled: 1
  m_EditorHideFlags: 0
  m_Script: {fileID: 11500000, guid: 0641b2b3bf0e09e40875fabf1e043a93, type: 3}
  m_Name: LetterCube_E
  m_EditorClassIdentifier: 
  itemName: Letter Cube E
  icon: {fileID: 21300000, guid: 4db017495c69e8140a56a0e2b669e3f8, type: 3}
