%YAML 1.1
%TAG !u! tag:unity3d.com,2011:
--- !u!114 &11400000
MonoBehaviour:
  m_ObjectHideFlags: 0
  m_CorrespondingSourceObject: {fileID: 0}
  m_PrefabInternal: {fileID: 0}
  m_GameObject: {fileID: 0}
  m_Enabled: 1
  m_EditorHideFlags: 0
  m_Script: {fileID: 11500000, guid: de27fe66c1028a340b010a8655c72646, type: 3}
  m_Name: GameInitializeSettings
  m_EditorClassIdentifier: 
  GameVersion: _undefined
  LogDebugs: 1
  TargetApplicationFPS: 120
